…
### Terra

For this we must convert our points from a sf object to a SpatVector object. See the `sf_to_SpatVector()` function in `setup.R`

terra returns a data.frame of [npoints, nlayers], which we convert to a tibble.

```
vterr <- extract(terr, sf_to_SpatVector(pts)) %>%
  dplyr::as_tibble()
vterr
# # A tibble: 100 x 31
#       ID `201_1` `201_2` `201_3` `201_4` `201_5` `201_6` `201_7` `201_8` `201_9` `201_10` `201_11` `201_12`
#    <dbl>   <dbl>   <dbl>   <dbl>   <dbl>   <dbl>   <dbl>   <dbl>   <dbl>   <dbl>    <dbl>    <dbl>    <dbl>
#  1     1    283.    283.    283.    283.    283.    284.    284.    284.    284.     285.     285.     285.
#  2     2    282.    282.    282.    282.    283.    283.    283.    284.    284.     284.     284.     284.
#  3     3    283.    283.    283.    283.    283.    283.    284.    284.    284.     285.     285.     285.
#  4     4    283.    283.    283.    284.    284.    284.    284.    284.    285.     285.     286.     286.
#  5     5    283.    283.    283.    283.    284.    284.    284.    284.    284.     285.     285.     285.
#  6     6    283.    283.    283.    283.    283.    283.    283.    284.    284.     285.     285.     285.
#  7     7    282.    282.    283.    283.    283.    284.    284.    284.    284.     285.     285.     285.
#  8     8    282.    282.    282.    282.    283.    283.    283.    283.    284.     284.     284.     284.
#  9     9    282.    282.    283.    283.    284.    284.    284.    284.    285.     285.     285.     285.
# 10    10    283.    283.    283.    283.    284.    284.    284.    284.    284.     285.     285.     286.
# # … with 90 more rows, and 18 more variables: `201_13` <dbl>, `201_14` <dbl>, `201_15` <dbl>, `201_16` <dbl>,
# #   `201_17` <dbl>, `201_18` <dbl>, `201_19` <dbl>, `201_20` <dbl>, `201_21` <dbl>, `201_22` <dbl>,
# #   `201_23` <dbl>, `201_24` <dbl>, `201_25` <dbl>, `201_26` <dbl>, `201_27` <dbl>, `201_28` <dbl>,
# #   `201_29` <dbl>, `201_30` <dbl>
```
…
